…
To select one or more variables using tidyverse, we can use the `select`
function:

`select(data, variable1, variable2, ...)`

For example, if we wanted to return the new homes bonus (nhb) for each
local authority, the seventh column of the dataset, we can either select
this based on the variable name or its location in the object:

``` r
select(csp_2020, nhb_2020)
```

    ## # A tibble: 396 × 1
    ##    nhb_2020
    ##       <dbl>
    ##  1   0.0881
    ##  2   0.606 
    ##  3   1.58  
    ##  4   2.29  
    ##  5   1.15  
    ##  6   3.05  
    ##  7   0     
    ##  8   0     
    ##  9   1.05  
    ## 10   1.85  
    ## # ℹ 386 more rows

``` r
select(csp_2020, 7)
```

    ## # A tibble: 396 × 1
    ##    nhb_2020
    ##       <dbl>
    ##  1   0.0881
    ##  2   0.606 
    ##  3   1.58  
    ##  4   2.29  
    ##  5   1.15  
    ##  6   3.05  
    ##  7   0     
    ##  8   0     
    ##  9   1.05  
    ## 10   1.85  
    ## # ℹ 386 more rows

We can select multiple variables and return them as a tibble by
separating the variable names or numbers with commas:

``` r
select(csp_2020, ons_code, authority, region)
```

    ## # A tibble: 396 × 3
    ##    ons_code  authority            region
    ##    <chr>     <chr>                <chr> 
    ##  1 E07000223 Adur                 SE    
    ##  2 E07000026 Allerdale            NW    
    ##  3 E07000032 Amber Valley         EM    
    ##  4 E07000224 Arun                 SE    
    ##  5 E07000170 Ashfield             EM    
    ##  6 E07000105 Ashford              SE    
    ##  7 E31000001 Avon Fire            SW    
    ##  8 E07000004 Aylesbury Vale       SE    
    ##  9 E07000200 Babergh              EE    
    ## 10 E09000002 Barking And Dagenham L     
    ## # ℹ 386 more rows

When selecting consecutive variables, a shortcut can be used that gives
the first and last variable in the list, separated by a colon, `:`. The
previous example can be carried out using the following code:

``` r
select(csp_2020, ons_code:region)
```

    ## # A tibble: 396 × 3
    ##    ons_code  authority            region
    ##    <chr>     <chr>                <chr> 
    ##  1 E07000223 Adur                 SE    
    ##  2 E07000026 Allerdale            NW    
    ##  3 E07000032 Amber Valley         EM    
    ##  4 E07000224 Arun                 SE    
    ##  5 E07000170 Ashfield             EM    
    ##  6 E07000105 Ashford              SE    
    ##  7 E31000001 Avon Fire            SW    
    ##  8 E07000004 Aylesbury Vale       SE    
    ##  9 E07000200 Babergh              EE    
    ## 10 E09000002 Barking And Dagenham L     
    ## # ℹ 386 more rows
…
`filter(data, condition 1, condition 2, ...)`

Conditional statements include less than `<`, less than or equal to
`<=`, greater than `>`, greater or equal to `>=`, is equal to `==`, is
not equal to `!=`, or is missing `is.na(variable)`.

For example, to return the core spending power for local authorities in
the North West region:

``` r
filter(csp_2020, region == "NW")
```

    ## # A tibble: 46 × 9
    ##    ons_code  authority   region sfa_2020 under_index_2020 ct_total_2020 nhb_2020
    ##    <chr>     <chr>       <chr>     <dbl>            <dbl>         <dbl>    <dbl>
    ##  1 E07000026 Allerdale   NW         3.85            0.147          5.40   0.606 
    ##  2 E07000027 Barrow-in-… NW         4.40            0.125          4.74   0.0111
    ##  3 E06000008 Blackburn … NW        58.1             1.79          55.9    0.999 
    ##  4 E06000009 Blackpool   NW        63.3             1.94          60.1    0.266 
    ##  5 E08000001 Bolton      NW        84.2             2.73         115.     0.506 
    ##  6 E07000117 Burnley     NW         5.90            0.171          7.16   0.694 
    ##  7 E08000002 Bury        NW        42.3             1.44          89.0    0.458 
    ##  8 E07000028 Carlisle    NW         3.34            0.134          7.49   1.49  
    ##  9 E06000049 Cheshire E… NW        42.5             1.70         230.    11.2   
    ## 10 E31000006 Cheshire F… NW        13.5             0.380         30.1    0     
    ## # ℹ 36 more rows
    ## # ℹ 2 more variables: nhb_return_2020 <dbl>, rsdg_2020 <dbl>

We can use multiple conditional statements to filter a subgroup, these
statements must be separated in the function using commas. For example,
to return a subgroup of local authorities that were in the North West
region and had a settlement funding assessment (SFA) of over £40
million, we use the following:

``` r
filter(csp_2020, region == "NW", sfa_2020 > 40)
```

    ## # A tibble: 23 × 9
    ##    ons_code  authority   region sfa_2020 under_index_2020 ct_total_2020 nhb_2020
    ##    <chr>     <chr>       <chr>     <dbl>            <dbl>         <dbl>    <dbl>
    ##  1 E06000008 Blackburn … NW         58.1             1.79          55.9    0.999
    ##  2 E06000009 Blackpool   NW         63.3             1.94          60.1    0.266
    ##  3 E08000001 Bolton      NW         84.2             2.73         115.     0.506
    ##  4 E08000002 Bury        NW         42.3             1.44          89.0    0.458
    ##  5 E06000049 Cheshire E… NW         42.5             1.70         230.    11.2  
    ##  6 E06000050 Cheshire W… NW         56.3             2.12         196.    10.2  
    ##  7 E10000006 Cumbria     NW        107.              3.56         248.     0.824
    ##  8 E47000001 Greater Ma… NW         50.6             1.28          50.5    0    
    ##  9 E06000006 Halton      NW         45.6             1.45          52.2    2.21 
    ## 10 E08000011 Knowsley    NW         84.1             2.50          56.8    2.10 
    ## # ℹ 13 more rows
    ## # ℹ 2 more variables: nhb_return_2020 <dbl>, rsdg_2020 <dbl>
…
``` r
csp_2020 %>% 
  filter(region == "NW") %>% 
  select(authority)
```

    ## # A tibble: 46 × 1
    ##    authority            
    ##    <chr>                
    ##  1 Allerdale            
    ##  2 Barrow-in-Furness    
    ##  3 Blackburn with Darwen
    ##  4 Blackpool            
    ##  5 Bolton               
    ##  6 Burnley              
    ##  7 Bury                 
    ##  8 Carlisle             
    ##  9 Cheshire East        
    ## 10 Cheshire Fire        
    ## # ℹ 36 more rows
…
