…
``` r
csp_long2 %>% 
group_by(ons_code, authority) %>% 
    summarise(total_spend_all = sum(total_spend),
              mean_total_spend = mean(total_spend),
          median_total_spend = median(total_spend),
          quantile10_total_spend = quantile(total_spend, 0.1),
          total_obs = n()) %>%
    ungroup()
```

    ## `summarise()` has grouped output by 'ons_code'. You can override using the
    ## `.groups` argument.

    ## # A tibble: 396 × 7
    ##    ons_code  authority       total_spend_all mean_total_spend median_total_spend
    ##    <chr>     <chr>                     <dbl>            <dbl>              <dbl>
    ##  1 -         Greater London…          12416.           2069.              2022. 
    ##  2 E06000001 Hartlepool                 485.             80.8               80.3
    ##  3 E06000002 Middlesbrough              711.            119.               118. 
    ##  4 E06000003 Redcar And Cle…            660.            110.               109. 
    ##  5 E06000004 Stockton-on-Te…            832.            139.               138. 
    ##  6 E06000005 Darlington                 474.             79.0               78.5
    ##  7 E06000006 Halton                     598.             99.7               99.0
    ##  8 E06000007 Warrington                 806.            134.               133. 
    ##  9 E06000008 Blackburn with…            692.            115.               115. 
    ## 10 E06000009 Blackpool                  750.            125.               124. 
    ## # ℹ 386 more rows
    ## # ℹ 2 more variables: quantile10_total_spend <dbl>, total_obs <int>
…
