Introduction to R with Tidyverse - Exercise solutions
…
Convert the data object csp_long2 back into wide format, with one row per local authority and one variable per total spend per year (HINT: start by selecting only the variables you need from the long data frame). Use the help file ?pivot_wider and vignette("pivot") for more hints.

Using your new wide data frame, calculate the difference in total spending for each local authority between 2015 and 2020. How many local authorities have had an overall reduction in spending since 2015?

Solutions

Use the summarise function after grouping by the year and region variables:

csp_long2 %>% 
  group_by(region, year) %>% 
  summarise(min_spend = min(total_spend),
            max_spend = max(total_spend),
            median_spend = median(total_spend)) %>% 
  ungroup()
## # A tibble: 54 × 5
##    region  year min_spend max_spend median_spend
##    <chr>  <dbl>     <dbl>     <dbl>        <dbl>
##  1 EE      2015         0      883.         15.9
##  2 EE      2016         0      860.         16.2
##  3 EE      2017         0      845.         15.0
##  4 EE      2018         0      860.         14.4
##  5 EE      2019         0      874.         14.7
##  6 EE      2020         0      915.         15.2
##  7 EM      2015         0      492.         12.4
##  8 EM      2016         0      479.         12.0
##  9 EM      2017         0      475.         11.1
## 10 EM      2018         0      483.         11.0
## # ℹ 44 more rows
…
