Introduction to R with Tidyverse - 3 Data preparation and manipulation
…
  group_by(ons_code, authority) %>% 
  # Total spend 2015 - 2020
  summarise(total_spend_all = sum(total_spend),
            # Mean spend 2015 - 2020  
            mean_total_spend = mean(total_spend),
            # Median spend 2015 - 2020
            median_total_spend = median(total_spend),
            # 10th percentile of total spend
            quantile10_total_spend = quantile(total_spend, 0.1),
            # Number of rows summarised over
            total_obs = n()) %>%
  # Remove grouping structure
  ungroup()

# A tibble: 396 × 7
   ons_code  authority       total_spend_all mean_total_spend median_total_spend
   <chr>     <chr>                     <dbl>            <dbl>              <dbl>
 1 -         Greater London…          12416.           2069.              2022. 
 2 E06000001 Hartlepool                 485.             80.8               80.3
 3 E06000002 Middlesbrough              711.            119.               118. 
 4 E06000003 Redcar And Cle…            660.            110.               109. 
 5 E06000004 Stockton-on-Te…            832.            139.               138. 
 6 E06000005 Darlington                 474.             79.0               78.5
 7 E06000006 Halton                     598.             99.7               99.0
 8 E06000007 Warrington                 806.            134.               133. 
 9 E06000008 Blackburn with…            692.            115.               115. 
10 E06000009 Blackpool                  750.            125.               124. 
# ℹ 386 more rows
# ℹ 2 more variables: quantile10_total_spend <dbl>, total_obs <int>
…
